{
    "webSocketAddress": "ws://localhost:38837/Messages",
    "audioHandler":{
        "piper":true,
        "google":false
    },
    "piper":{
        "path":"~/.var/app/com.mikeasoft.pied/data/pied/models/",
        "model":"en_GB-northern_english_male-medium.onnx"
    },
    "debug": false,
    "media":{
        "volume": 100,
        "playbackSpeed": 1.1
    }
}